🗑(> ^_^)>     hello world
🗑 (> ^_^)>    hello world
🗑  (> ^_^)>   hello world
🗑   (> ^_^)>  hello world
🗑    (> ^_^)> hello world
🗑     (> ^_^)>hello world
🗑     h<(^_^ <)ello world
🗑    h<(^_^ <) ello world
🗑   h<(^_^ <)  ello world
🗑  h<(^_^ <)   ello world
🗑 h<(^_^ <)    ello world
🗑h<(^_^ <)     ello world
🗑<(^_^ <)      ello world
🗑(> ^_^)>      ello world
🗑 (> ^_^)>     ello world
🗑  (> ^_^)>    ello world
🗑   (> ^_^)>   ello world
🗑    (> ^_^)>  ello world
🗑     (> ^_^)> ello world
🗑      (> ^_^)>ello world
🗑      e<(^_^ <)llo world
🗑     e<(^_^ <) llo world
🗑    e<(^_^ <)  llo world
🗑   e<(^_^ <)   llo world
🗑  e<(^_^ <)    llo world
🗑 e<(^_^ <)     llo world
🗑e<(^_^ <)      llo world
🗑<(^_^ <)       llo world
🗑(> ^_^)>       llo world
🗑 (> ^_^)>      llo world
🗑  (> ^_^)>     llo world
🗑   (> ^_^)>    llo world
🗑    (> ^_^)>   llo world
🗑     (> ^_^)>  llo world
🗑      (> ^_^)> llo world
🗑       (> ^_^)>llo world
🗑       l<(^_^ <)lo world
🗑      l<(^_^ <) lo world
🗑     l<(^_^ <)  lo world
🗑    l<(^_^ <)   lo world
🗑   l<(^_^ <)    lo world
🗑  l<(^_^ <)     lo world
🗑 l<(^_^ <)      lo world
🗑l<(^_^ <)       lo world
🗑<(^_^ <)        lo world
🗑(> ^_^)>        lo world
🗑 (> ^_^)>       lo world
🗑  (> ^_^)>      lo world
🗑   (> ^_^)>     lo world
🗑    (> ^_^)>    lo world
🗑     (> ^_^)>   lo world
🗑      (> ^_^)>  lo world
🗑       (> ^_^)> lo world
🗑        (> ^_^)>lo world
🗑        l<(^_^ <)o world
🗑       l<(^_^ <) o world
🗑      l<(^_^ <)  o world
🗑     l<(^_^ <)   o world
🗑    l<(^_^ <)    o world
🗑   l<(^_^ <)     o world
🗑  l<(^_^ <)      o world
🗑 l<(^_^ <)       o world
🗑l<(^_^ <)        o world
🗑<(^_^ <)         o world
🗑(> ^_^)>         o world
🗑 (> ^_^)>        o world
🗑  (> ^_^)>       o world
🗑   (> ^_^)>      o world
🗑    (> ^_^)>     o world
🗑     (> ^_^)>    o world
🗑      (> ^_^)>   o world
🗑       (> ^_^)>  o world
🗑        (> ^_^)> o world
🗑         (> ^_^)>o world
🗑         o<(^_^ <) world
🗑        o<(^_^ <)  world
🗑       o<(^_^ <)   world
🗑      o<(^_^ <)    world
🗑     o<(^_^ <)     world
🗑    o<(^_^ <)      world
🗑   o<(^_^ <)       world
🗑  o<(^_^ <)        world
🗑 o<(^_^ <)         world
🗑o<(^_^ <)          world
🗑<(^_^ <)           world
🗑(> ^_^)>           world
🗑 (> ^_^)>          world
🗑  (> ^_^)>         world
🗑   (> ^_^)>        world
🗑    (> ^_^)>       world
🗑     (> ^_^)>      world
🗑      (> ^_^)>     world
🗑       (> ^_^)>    world
🗑        (> ^_^)>   world
🗑         (> ^_^)>  world
🗑          (> ^_^)> world
🗑           <(^_^ <)world
🗑          <(^_^ <) world
🗑         <(^_^ <)  world
🗑        <(^_^ <)   world
🗑       <(^_^ <)    world
🗑      <(^_^ <)     world
🗑     <(^_^ <)      world
🗑    <(^_^ <)       world
🗑   <(^_^ <)        world
🗑  <(^_^ <)         world
🗑 <(^_^ <)          world
🗑<(^_^ <)           world
🗑(> ^_^)>           world
🗑 (> ^_^)>          world
🗑  (> ^_^)>         world
🗑   (> ^_^)>        world
🗑    (> ^_^)>       world
🗑     (> ^_^)>      world
🗑      (> ^_^)>     world
🗑       (> ^_^)>    world
🗑        (> ^_^)>   world
🗑         (> ^_^)>  world
🗑          (> ^_^)> world
🗑           (> ^_^)>world
🗑           w<(^_^ <)orld
🗑          w<(^_^ <) orld
🗑         w<(^_^ <)  orld
🗑        w<(^_^ <)   orld
🗑       w<(^_^ <)    orld
🗑      w<(^_^ <)     orld
🗑     w<(^_^ <)      orld
🗑    w<(^_^ <)       orld
🗑   w<(^_^ <)        orld
🗑  w<(^_^ <)         orld
🗑 w<(^_^ <)          orld
🗑w<(^_^ <)           orld
🗑<(^_^ <)            orld
🗑(> ^_^)>            orld
🗑 (> ^_^)>           orld
🗑  (> ^_^)>          orld
🗑   (> ^_^)>         orld
🗑    (> ^_^)>        orld
🗑     (> ^_^)>       orld
🗑      (> ^_^)>      orld
🗑       (> ^_^)>     orld
🗑        (> ^_^)>    orld
🗑         (> ^_^)>   orld
🗑          (> ^_^)>  orld
🗑           (> ^_^)> orld
🗑            (> ^_^)>orld
🗑            o<(^_^ <)rld
🗑           o<(^_^ <) rld
🗑          o<(^_^ <)  rld
🗑         o<(^_^ <)   rld
🗑        o<(^_^ <)    rld
🗑       o<(^_^ <)     rld
🗑      o<(^_^ <)      rld
🗑     o<(^_^ <)       rld
🗑    o<(^_^ <)        rld
🗑   o<(^_^ <)         rld
🗑  o<(^_^ <)          rld
🗑 o<(^_^ <)           rld
🗑o<(^_^ <)            rld
🗑<(^_^ <)             rld
🗑(> ^_^)>             rld
🗑 (> ^_^)>            rld
🗑  (> ^_^)>           rld
🗑   (> ^_^)>          rld
🗑    (> ^_^)>         rld
🗑     (> ^_^)>        rld
🗑      (> ^_^)>       rld
🗑       (> ^_^)>      rld
🗑        (> ^_^)>     rld
🗑         (> ^_^)>    rld
🗑          (> ^_^)>   rld
🗑           (> ^_^)>  rld
🗑            (> ^_^)> rld
🗑             (> ^_^)>rld
🗑             r<(^_^ <)ld
🗑            r<(^_^ <) ld
🗑           r<(^_^ <)  ld
🗑          r<(^_^ <)   ld
🗑         r<(^_^ <)    ld
🗑        r<(^_^ <)     ld
🗑       r<(^_^ <)      ld
🗑      r<(^_^ <)       ld
🗑     r<(^_^ <)        ld
🗑    r<(^_^ <)         ld
🗑   r<(^_^ <)          ld
🗑  r<(^_^ <)           ld
🗑 r<(^_^ <)            ld
🗑r<(^_^ <)             ld
🗑<(^_^ <)              ld
🗑(> ^_^)>              ld
🗑 (> ^_^)>             ld
🗑  (> ^_^)>            ld
🗑   (> ^_^)>           ld
🗑    (> ^_^)>          ld
🗑     (> ^_^)>         ld
🗑      (> ^_^)>        ld
🗑       (> ^_^)>       ld
🗑        (> ^_^)>      ld
🗑         (> ^_^)>     ld
🗑          (> ^_^)>    ld
🗑           (> ^_^)>   ld
🗑            (> ^_^)>  ld
🗑             (> ^_^)> ld
🗑              (> ^_^)>ld
🗑              l<(^_^ <)d
🗑             l<(^_^ <) d
🗑            l<(^_^ <)  d
🗑           l<(^_^ <)   d
🗑          l<(^_^ <)    d
🗑         l<(^_^ <)     d
🗑        l<(^_^ <)      d
🗑       l<(^_^ <)       d
🗑      l<(^_^ <)        d
🗑     l<(^_^ <)         d
🗑    l<(^_^ <)          d
🗑   l<(^_^ <)           d
🗑  l<(^_^ <)            d
🗑 l<(^_^ <)             d
🗑l<(^_^ <)              d
🗑<(^_^ <)               d
🗑(> ^_^)>               d
🗑 (> ^_^)>              d
🗑  (> ^_^)>             d
🗑   (> ^_^)>            d
🗑    (> ^_^)>           d
🗑     (> ^_^)>          d
🗑      (> ^_^)>         d
🗑       (> ^_^)>        d
🗑        (> ^_^)>       d
🗑         (> ^_^)>      d
🗑          (> ^_^)>     d
🗑           (> ^_^)>    d
🗑            (> ^_^)>   d
🗑             (> ^_^)>  d
🗑              (> ^_^)> d
🗑               (> ^_^)>d
🗑               d<(^_^ <)
🗑              d<(^_^ <) 
🗑             d<(^_^ <)  
🗑            d<(^_^ <)   
🗑           d<(^_^ <)    
🗑          d<(^_^ <)     
🗑         d<(^_^ <)      
🗑        d<(^_^ <)       
🗑       d<(^_^ <)        
🗑      d<(^_^ <)         
🗑     d<(^_^ <)          
🗑    d<(^_^ <)           
🗑   d<(^_^ <)            
🗑  d<(^_^ <)             
🗑 d<(^_^ <)              
🗑d<(^_^ <)               
🗑<(^_^ <)                
🗑(> ^_^)>                
🗑(> ^_^)>     👰🧑‍🦰abc hellotesting
🗑 (> ^_^)>    👰🧑‍🦰abc hellotesting
🗑  (> ^_^)>   👰🧑‍🦰abc hellotesting
🗑   (> ^_^)>  👰🧑‍🦰abc hellotesting
🗑    (> ^_^)> 👰🧑‍🦰abc hellotesting
🗑     (> ^_^)>👰🧑‍🦰abc hellotesting
🗑     👰<(^_^ <)🧑‍🦰abc hellotesting
🗑    👰<(^_^ <) 🧑‍🦰abc hellotesting
🗑   👰<(^_^ <)  🧑‍🦰abc hellotesting
🗑  👰<(^_^ <)   🧑‍🦰abc hellotesting
🗑 👰<(^_^ <)    🧑‍🦰abc hellotesting
🗑👰<(^_^ <)     🧑‍🦰abc hellotesting
🗑<(^_^ <)       🧑‍🦰abc hellotesting
🗑(> ^_^)>       🧑‍🦰abc hellotesting
🗑 (> ^_^)>      🧑‍🦰abc hellotesting
🗑  (> ^_^)>     🧑‍🦰abc hellotesting
🗑   (> ^_^)>    🧑‍🦰abc hellotesting
🗑    (> ^_^)>   🧑‍🦰abc hellotesting
🗑     (> ^_^)>  🧑‍🦰abc hellotesting
🗑      (> ^_^)> 🧑‍🦰abc hellotesting
🗑       (> ^_^)>🧑‍🦰abc hellotesting
🗑       🧑‍🦰<(^_^ <)abc hellotesting
🗑      🧑‍🦰<(^_^ <) abc hellotesting
🗑     🧑‍🦰<(^_^ <)  abc hellotesting
🗑    🧑‍🦰<(^_^ <)   abc hellotesting
🗑   🧑‍🦰<(^_^ <)    abc hellotesting
🗑  🧑‍🦰<(^_^ <)     abc hellotesting
🗑 🧑‍🦰<(^_^ <)      abc hellotesting
🗑🧑‍🦰<(^_^ <)       abc hellotesting
🗑<(^_^ <)         abc hellotesting
🗑(> ^_^)>         abc hellotesting
🗑 (> ^_^)>        abc hellotesting
🗑  (> ^_^)>       abc hellotesting
🗑   (> ^_^)>      abc hellotesting
🗑    (> ^_^)>     abc hellotesting
🗑     (> ^_^)>    abc hellotesting
🗑      (> ^_^)>   abc hellotesting
🗑       (> ^_^)>  abc hellotesting
🗑        (> ^_^)> abc hellotesting
🗑         (> ^_^)>abc hellotesting
🗑         abc<(^_^ <) hellotesting
🗑        abc<(^_^ <)  hellotesting
🗑       abc<(^_^ <)   hellotesting
🗑      abc<(^_^ <)    hellotesting
🗑     abc<(^_^ <)     hellotesting
🗑    abc<(^_^ <)      hellotesting
🗑   abc<(^_^ <)       hellotesting
🗑  abc<(^_^ <)        hellotesting
🗑 abc<(^_^ <)         hellotesting
🗑abc<(^_^ <)          hellotesting
🗑<(^_^ <)             hellotesting
🗑(> ^_^)>             hellotesting
🗑 (> ^_^)>            hellotesting
🗑  (> ^_^)>           hellotesting
🗑   (> ^_^)>          hellotesting
🗑    (> ^_^)>         hellotesting
🗑     (> ^_^)>        hellotesting
🗑      (> ^_^)>       hellotesting
🗑       (> ^_^)>      hellotesting
🗑        (> ^_^)>     hellotesting
🗑         (> ^_^)>    hellotesting
🗑          (> ^_^)>   hellotesting
🗑           (> ^_^)>  hellotesting
🗑            (> ^_^)> hellotesting
🗑             (> ^_^)>hellotesting
🗑             hello<(^_^ <)testing
🗑            hello<(^_^ <) testing
🗑           hello<(^_^ <)  testing
🗑          hello<(^_^ <)   testing
🗑         hello<(^_^ <)    testing
🗑        hello<(^_^ <)     testing
🗑       hello<(^_^ <)      testing
🗑      hello<(^_^ <)       testing
🗑     hello<(^_^ <)        testing
🗑    hello<(^_^ <)         testing
🗑   hello<(^_^ <)          testing
🗑  hello<(^_^ <)           testing
🗑 hello<(^_^ <)            testing
🗑hello<(^_^ <)             testing
🗑<(^_^ <)                  testing
🗑(> ^_^)>                  testing
🗑 (> ^_^)>                 testing
🗑  (> ^_^)>                testing
🗑   (> ^_^)>               testing
🗑    (> ^_^)>              testing
🗑     (> ^_^)>             testing
🗑      (> ^_^)>            testing
🗑       (> ^_^)>           testing
🗑        (> ^_^)>          testing
🗑         (> ^_^)>         testing
🗑          (> ^_^)>        testing
🗑           (> ^_^)>       testing
🗑            (> ^_^)>      testing
🗑             (> ^_^)>     testing
🗑              (> ^_^)>    testing
🗑               (> ^_^)>   testing
🗑                (> ^_^)>  testing
🗑                 (> ^_^)> testing
🗑                  (> ^_^)>testing
🗑                  t<(^_^ <)esting
🗑                 t<(^_^ <) esting
🗑                t<(^_^ <)  esting
🗑               t<(^_^ <)   esting
🗑              t<(^_^ <)    esting
🗑             t<(^_^ <)     esting
🗑            t<(^_^ <)      esting
🗑           t<(^_^ <)       esting
🗑          t<(^_^ <)        esting
🗑         t<(^_^ <)         esting
🗑        t<(^_^ <)          esting
🗑       t<(^_^ <)           esting
🗑      t<(^_^ <)            esting
🗑     t<(^_^ <)             esting
🗑    t<(^_^ <)              esting
🗑   t<(^_^ <)               esting
🗑  t<(^_^ <)                esting
🗑 t<(^_^ <)                 esting
🗑t<(^_^ <)                  esting
🗑<(^_^ <)                   esting
🗑(> ^_^)>                   esting
🗑 (> ^_^)>                  esting
🗑  (> ^_^)>                 esting
🗑   (> ^_^)>                esting
🗑    (> ^_^)>               esting
🗑     (> ^_^)>              esting
🗑      (> ^_^)>             esting
🗑       (> ^_^)>            esting
🗑        (> ^_^)>           esting
🗑         (> ^_^)>          esting
🗑          (> ^_^)>         esting
🗑           (> ^_^)>        esting
🗑            (> ^_^)>       esting
🗑             (> ^_^)>      esting
🗑              (> ^_^)>     esting
🗑               (> ^_^)>    esting
🗑                (> ^_^)>   esting
🗑                 (> ^_^)>  esting
🗑                  (> ^_^)> esting
🗑                   (> ^_^)>esting
🗑                   e<(^_^ <)sting
🗑                  e<(^_^ <) sting
🗑                 e<(^_^ <)  sting
🗑                e<(^_^ <)   sting
🗑               e<(^_^ <)    sting
🗑              e<(^_^ <)     sting
🗑             e<(^_^ <)      sting
🗑            e<(^_^ <)       sting
🗑           e<(^_^ <)        sting
🗑          e<(^_^ <)         sting
🗑         e<(^_^ <)          sting
🗑        e<(^_^ <)           sting
🗑       e<(^_^ <)            sting
🗑      e<(^_^ <)             sting
🗑     e<(^_^ <)              sting
🗑    e<(^_^ <)               sting
🗑   e<(^_^ <)                sting
🗑  e<(^_^ <)                 sting
🗑 e<(^_^ <)                  sting
🗑e<(^_^ <)                   sting
🗑<(^_^ <)                    sting
🗑(> ^_^)>                    sting
🗑 (> ^_^)>                   sting
🗑  (> ^_^)>                  sting
🗑   (> ^_^)>                 sting
🗑    (> ^_^)>                sting
🗑     (> ^_^)>               sting
🗑      (> ^_^)>              sting
🗑       (> ^_^)>             sting
🗑        (> ^_^)>            sting
🗑         (> ^_^)>           sting
🗑          (> ^_^)>          sting
🗑           (> ^_^)>         sting
🗑            (> ^_^)>        sting
🗑             (> ^_^)>       sting
🗑              (> ^_^)>      sting
🗑               (> ^_^)>     sting
🗑                (> ^_^)>    sting
🗑                 (> ^_^)>   sting
🗑                  (> ^_^)>  sting
🗑                   (> ^_^)> sting
🗑                    (> ^_^)>sting
🗑                    s<(^_^ <)ting
🗑                   s<(^_^ <) ting
🗑                  s<(^_^ <)  ting
🗑                 s<(^_^ <)   ting
🗑                s<(^_^ <)    ting
🗑               s<(^_^ <)     ting
🗑              s<(^_^ <)      ting
🗑             s<(^_^ <)       ting
🗑            s<(^_^ <)        ting
🗑           s<(^_^ <)         ting
🗑          s<(^_^ <)          ting
🗑         s<(^_^ <)           ting
🗑        s<(^_^ <)            ting
🗑       s<(^_^ <)             ting
🗑      s<(^_^ <)              ting
🗑     s<(^_^ <)               ting
🗑    s<(^_^ <)                ting
🗑   s<(^_^ <)                 ting
🗑  s<(^_^ <)                  ting
🗑 s<(^_^ <)                   ting
🗑s<(^_^ <)                    ting
🗑<(^_^ <)                     ting
🗑(> ^_^)>                     ting
🗑 (> ^_^)>                    ting
🗑  (> ^_^)>                   ting
🗑   (> ^_^)>                  ting
🗑    (> ^_^)>                 ting
🗑     (> ^_^)>                ting
🗑      (> ^_^)>               ting
🗑       (> ^_^)>              ting
🗑        (> ^_^)>             ting
🗑         (> ^_^)>            ting
🗑          (> ^_^)>           ting
🗑           (> ^_^)>          ting
🗑            (> ^_^)>         ting
🗑             (> ^_^)>        ting
🗑              (> ^_^)>       ting
🗑               (> ^_^)>      ting
🗑                (> ^_^)>     ting
🗑                 (> ^_^)>    ting
🗑                  (> ^_^)>   ting
🗑                   (> ^_^)>  ting
🗑                    (> ^_^)> ting
🗑                     (> ^_^)>ting
🗑                     t<(^_^ <)ing
🗑                    t<(^_^ <) ing
🗑                   t<(^_^ <)  ing
🗑                  t<(^_^ <)   ing
🗑                 t<(^_^ <)    ing
🗑                t<(^_^ <)     ing
🗑               t<(^_^ <)      ing
🗑              t<(^_^ <)       ing
🗑             t<(^_^ <)        ing
🗑            t<(^_^ <)         ing
🗑           t<(^_^ <)          ing
🗑          t<(^_^ <)           ing
🗑         t<(^_^ <)            ing
🗑        t<(^_^ <)             ing
🗑       t<(^_^ <)              ing
🗑      t<(^_^ <)               ing
🗑     t<(^_^ <)                ing
🗑    t<(^_^ <)                 ing
🗑   t<(^_^ <)                  ing
🗑  t<(^_^ <)                   ing
🗑 t<(^_^ <)                    ing
🗑t<(^_^ <)                     ing
🗑<(^_^ <)                      ing
🗑(> ^_^)>                      ing
🗑 (> ^_^)>                     ing
🗑  (> ^_^)>                    ing
🗑   (> ^_^)>                   ing
🗑    (> ^_^)>                  ing
🗑     (> ^_^)>                 ing
🗑      (> ^_^)>                ing
🗑       (> ^_^)>               ing
🗑        (> ^_^)>              ing
🗑         (> ^_^)>             ing
🗑          (> ^_^)>            ing
🗑           (> ^_^)>           ing
🗑            (> ^_^)>          ing
🗑             (> ^_^)>         ing
🗑              (> ^_^)>        ing
🗑               (> ^_^)>       ing
🗑                (> ^_^)>      ing
🗑                 (> ^_^)>     ing
🗑                  (> ^_^)>    ing
🗑                   (> ^_^)>   ing
🗑                    (> ^_^)>  ing
🗑                     (> ^_^)> ing
🗑                      (> ^_^)>ing
🗑                      i<(^_^ <)ng
🗑                     i<(^_^ <) ng
🗑                    i<(^_^ <)  ng
🗑                   i<(^_^ <)   ng
🗑                  i<(^_^ <)    ng
🗑                 i<(^_^ <)     ng
🗑                i<(^_^ <)      ng
🗑               i<(^_^ <)       ng
🗑              i<(^_^ <)        ng
🗑             i<(^_^ <)         ng
🗑            i<(^_^ <)          ng
🗑           i<(^_^ <)           ng
🗑          i<(^_^ <)            ng
🗑         i<(^_^ <)             ng
🗑        i<(^_^ <)              ng
🗑       i<(^_^ <)               ng
🗑      i<(^_^ <)                ng
🗑     i<(^_^ <)                 ng
🗑    i<(^_^ <)                  ng
🗑   i<(^_^ <)                   ng
🗑  i<(^_^ <)                    ng
🗑 i<(^_^ <)                     ng
🗑i<(^_^ <)                      ng
🗑<(^_^ <)                       ng
🗑(> ^_^)>                       ng
🗑 (> ^_^)>                      ng
🗑  (> ^_^)>                     ng
🗑   (> ^_^)>                    ng
🗑    (> ^_^)>                   ng
🗑     (> ^_^)>                  ng
🗑      (> ^_^)>                 ng
🗑       (> ^_^)>                ng
🗑        (> ^_^)>               ng
🗑         (> ^_^)>              ng
🗑          (> ^_^)>             ng
🗑           (> ^_^)>            ng
🗑            (> ^_^)>           ng
🗑             (> ^_^)>          ng
🗑              (> ^_^)>         ng
🗑               (> ^_^)>        ng
🗑                (> ^_^)>       ng
🗑                 (> ^_^)>      ng
🗑                  (> ^_^)>     ng
🗑                   (> ^_^)>    ng
🗑                    (> ^_^)>   ng
🗑                     (> ^_^)>  ng
🗑                      (> ^_^)> ng
🗑                       (> ^_^)>ng
🗑                       n<(^_^ <)g
🗑                      n<(^_^ <) g
🗑                     n<(^_^ <)  g
🗑                    n<(^_^ <)   g
🗑                   n<(^_^ <)    g
🗑                  n<(^_^ <)     g
🗑                 n<(^_^ <)      g
🗑                n<(^_^ <)       g
🗑               n<(^_^ <)        g
🗑              n<(^_^ <)         g
🗑             n<(^_^ <)          g
🗑            n<(^_^ <)           g
🗑           n<(^_^ <)            g
🗑          n<(^_^ <)             g
🗑         n<(^_^ <)              g
🗑        n<(^_^ <)               g
🗑       n<(^_^ <)                g
🗑      n<(^_^ <)                 g
🗑     n<(^_^ <)                  g
🗑    n<(^_^ <)                   g
🗑   n<(^_^ <)                    g
🗑  n<(^_^ <)                     g
🗑 n<(^_^ <)                      g
🗑n<(^_^ <)                       g
🗑<(^_^ <)                        g
🗑(> ^_^)>                        g
🗑 (> ^_^)>                       g
🗑  (> ^_^)>                      g
🗑   (> ^_^)>                     g
🗑    (> ^_^)>                    g
🗑     (> ^_^)>                   g
🗑      (> ^_^)>                  g
🗑       (> ^_^)>                 g
🗑        (> ^_^)>                g
🗑         (> ^_^)>               g
🗑          (> ^_^)>              g
🗑           (> ^_^)>             g
🗑            (> ^_^)>            g
🗑             (> ^_^)>           g
🗑              (> ^_^)>          g
🗑               (> ^_^)>         g
🗑                (> ^_^)>        g
🗑                 (> ^_^)>       g
🗑                  (> ^_^)>      g
🗑                   (> ^_^)>     g
🗑                    (> ^_^)>    g
🗑                     (> ^_^)>   g
🗑                      (> ^_^)>  g
🗑                       (> ^_^)> g
🗑                        (> ^_^)>g
🗑                        g<(^_^ <)
🗑                       g<(^_^ <) 
🗑                      g<(^_^ <)  
🗑                     g<(^_^ <)   
🗑                    g<(^_^ <)    
🗑                   g<(^_^ <)     
🗑                  g<(^_^ <)      
🗑                 g<(^_^ <)       
🗑                g<(^_^ <)        
🗑               g<(^_^ <)         
🗑              g<(^_^ <)          
🗑             g<(^_^ <)           
🗑            g<(^_^ <)            
🗑           g<(^_^ <)             
🗑          g<(^_^ <)              
🗑         g<(^_^ <)               
🗑        g<(^_^ <)                
🗑       g<(^_^ <)                 
🗑      g<(^_^ <)                  
🗑     g<(^_^ <)                   
🗑    g<(^_^ <)                    
🗑   g<(^_^ <)                     
🗑  g<(^_^ <)                      
🗑 g<(^_^ <)                       
🗑g<(^_^ <)                        
🗑<(^_^ <)     
🗑(> ^_^)>     

